Stat 585 - Working with lists
…
nest

nest is a function in tidyr: creates variable data

data is variable of data frames

movieList <- movies %>% nest(-Movie, -Release) 

## Warning: All elements of `...` must be named.
## Did you want `data = c(Date, Rank, Rank.Last.Week, Days, Distributor, Gross, Change, 
##     Total.Gross, Theaters, Per.Theater)`?

movieList 

## # A tibble: 1,387 × 3
##    Movie                        Release    data             
##    <chr>                        <chr>      <list>           
##  1 Split                        2017-01-17 <tibble [2 × 10]>
##  2 A Dog’s Purpose              2017-01-24 <tibble [1 × 10]>
##  3 Hidden Figures               2016-12-22 <tibble [6 × 10]>
##  4 Resident Evil: The Final Ch… 2017-01-24 <tibble [1 × 10]>
##  5 La La Land                   2016-12-06 <tibble [8 × 10]>
##  6 xXx: Return of Xander Cage   2017-01-17 <tibble [2 × 10]>
##  7 Sing                         2016-12-18 <tibble [6 × 10]>
##  8 Rogue One: A Star Wars Story 2016-12-13 <tibble [7 × 10]>
##  9 Monster Trucks               2017-01-10 <tibble [3 × 10]>
## 10 Gold                         2017-01-24 <tibble [1 × 10]>
## # … with 1,377 more rows

Nested data frames

movieList$Movie[456]

## [1] "Zootopia"

movieList$data[[456]] %>% arrange(Days)

## # A tibble: 22 × 10
##    Date        Rank Rank.Last.Week  Days Distributor    Gross Change Total.Gross
##    <chr>      <int>          <int> <int> <chr>          <dbl>  <dbl>       <int>
##  1 2016-03-04     1             NA     3 Walt Disney 75063401   NA      75063401
##  2 2016-03-11     1              1    10 Walt Disney 51339887  -31.6   143955013
##  3 2016-03-18     1              1    17 Walt Disney 37164158  -27.6   200929655
##  4 2016-03-25     2              1    24 Walt Disney 24022288  -35.4   241431697
##  5 2016-04-01     2              2    31 Walt Disney 19325291  -19.6   275264601
##  6 2016-04-08     3              2    38 Walt Disney 14345422  -25.8   296004904
##  7 2016-04-15     5              3    45 Walt Disney  8142641  -43.2   307386397
##  8 2016-04-22     4              5    52 Walt Disney  6579545  -19.2   316404151
##  9 2016-04-29     6              4    59 Walt Disney  5328858  -19.0   323841347
## 10 2016-05-06     6              6    66 Walt Disney  3214592  -39.7   328162582
## # … with 12 more rows, and 2 more variables: Theaters <int>, Per.Theater <dbl>
…
